<svg width="18" height="18" viewBox="0 0 18 18" fill="none" xmlns="http://www.w3.org/2000/svg">
<path d="M16.6133 1.38661C14.3805 -0.84624 10.2337 -0.326877 7.35965 2.54311C4.74239 5.16038 4.08807 8.8409 5.6846 11.158L0.249693 16.5937C0.171576 16.6692 0.109267 16.7594 0.0664022 16.8592C0.0235372 16.959 0.000974581 17.0663 3.0881e-05 17.1749C-0.000912819 17.2835 0.0197813 17.3912 0.0609058 17.4917C0.10203 17.5922 0.162761 17.6836 0.239556 17.7604C0.31635 17.8372 0.407669 17.8979 0.508186 17.939C0.608702 17.9801 0.716402 18.0008 0.825001 17.9999C0.933601 17.9989 1.04092 17.9764 1.14071 17.9335C1.2405 17.8907 1.33075 17.8283 1.4062 17.7502L6.84274 12.3129C7.70935 12.8955 8.73319 13.1997 9.77734 13.1847C9.92129 13.1847 10.0677 13.17 10.2133 13.1602C9.95964 12.6245 9.827 12.0395 9.82478 11.4467C9.8216 10.6208 10.0695 9.81339 10.5357 9.13159C11.0019 8.44979 11.6643 7.92579 12.4351 7.62906C13.2058 7.33233 14.0486 7.27689 14.8516 7.47009C15.6547 7.66329 16.38 8.096 16.9315 8.71086C18.4127 6.12549 18.38 3.15572 16.6133 1.38661Z" fill="#ffffff"/>
<path d="M13.9135 13.9003C15.2687 13.9003 16.3672 12.8018 16.3672 11.4467C16.3672 10.0915 15.2687 8.99298 13.9135 8.99298C12.5584 8.99298 11.4598 10.0915 11.4598 11.4467C11.4598 12.8018 12.5584 13.9003 13.9135 13.9003Z" fill="#E12239"/>
</svg>
